<svg width="120" height="181" viewBox="0 0 120 181" fill='currentColor' xmlns="http://www.w3.org/2000/svg">
<path d="M20 153.016H100V160.014H20V153.016Z" fill-opacity="0.03"/>
<path d="M20 167.012H100V180.074H20V167.012Z" fill-opacity="0.03"/>
<path d="M30.8404 29.2276C31.3729 29.3107 31.9087 29.353 32.4429 29.353C33.3353 29.353 34.2097 29.2097 35.061 28.9799L37.0612 32.1894L42.7907 28.6834L40.5916 25.1498C41.5005 23.8986 42.1431 22.4698 42.3929 20.9025C42.817 18.2633 42.1776 15.6175 40.5916 13.4589C39.0072 11.2937 36.6668 9.87143 34.0009 9.45437C31.3598 9.04056 28.6725 9.66779 26.4883 11.2432C24.3073 12.8137 22.8741 15.1336 22.4533 17.7762C22.0293 20.4154 22.6686 23.0612 24.253 25.2198C25.8325 27.3882 28.1745 28.8105 30.8404 29.2276ZM30.4443 16.6423C31.0261 16.2252 31.7098 16.0069 32.4166 16.0069C32.5908 16.0069 32.7699 16.0215 32.9474 16.0476C33.8366 16.1877 34.614 16.6618 35.1399 17.3786L35.1432 17.3819C35.6675 18.1036 35.8828 18.9834 35.7448 19.8647C35.6034 20.7461 35.1219 21.52 34.3987 22.0429C33.6722 22.561 32.7864 22.7712 31.8939 22.6408C31.0064 22.5007 30.229 22.0267 29.6998 21.3066C28.6052 19.8142 28.9388 17.7224 30.4443 16.6423Z" fill-opacity="0.03"/>
<path d="M82.9355 32.1894L84.9341 28.9795C85.7854 29.2092 86.6614 29.3526 87.5523 29.3526C88.0848 29.3526 88.6206 29.3103 89.1547 29.2272C91.8206 28.81 94.1577 27.3876 95.7421 25.2253C97.3314 23.0631 97.9708 20.417 97.5467 17.7774C97.126 15.1345 95.6928 12.8158 93.5101 11.2435C91.3259 9.66783 88.6469 9.04052 85.9974 9.45438C83.3316 9.87151 80.9928 11.294 79.4101 13.4562C77.8224 15.6184 77.1831 18.2645 77.6071 20.9042C77.8553 22.4717 78.4979 23.9006 79.4068 25.152L77.2094 28.6862L82.9355 32.1894ZM84.8535 17.37C85.3778 16.6498 86.1602 16.1789 87.0444 16.0388C87.2235 16.0127 87.401 15.9981 87.5769 15.9981C88.2836 15.9981 88.9674 16.2148 89.5492 16.6319C91.0497 17.7138 91.3867 19.806 90.297 21.2952L90.2937 21.3018C89.7678 22.0219 88.9871 22.4928 88.1012 22.633C87.2038 22.7633 86.3212 22.5564 85.5981 22.035C84.87 21.5119 84.3917 20.7331 84.2503 19.8565C84.109 18.9782 84.3243 18.0935 84.8535 17.37Z" fill-opacity="0.03"/>
<path d="M86.6189 56.8332C86.6189 46.0121 80.1835 36.3239 70.2241 32.158C66.0324 30.4065 63.3273 26.1933 63.3273 21.4267C63.3273 20.1584 63.5304 18.9079 63.9333 17.7016L69.9821 6.68626L60 0L50.0178 6.68626L56.0666 17.7016C56.4695 18.9128 56.6726 20.1616 56.6726 21.4267C56.6726 26.1933 53.9675 30.4065 49.7741 32.158C39.8164 36.3272 33.381 46.0121 33.381 56.8332V63.5195H16.7441V107.909C18.723 109.07 20.0715 111.203 20.0715 113.666V137.155C22.8595 135.033 26.2941 133.725 30.0536 133.725H32.1901C26.3802 114.773 23.3989 95.1355 23.3989 75.2645V70.2057H40.0357V60.1763C40.0357 49.1136 48.9894 40.1176 60 40.1176C71.0105 40.1176 79.9642 49.1136 79.9642 60.1763V70.2057H96.601V75.2645C96.601 95.1355 93.6197 114.773 87.8098 133.725H89.9463C93.7058 133.725 97.1404 135.033 99.9284 137.155V113.666C99.9284 111.203 101.275 109.07 103.256 107.909V63.5195H86.6189V56.8332Z" fill-opacity="0.03"/>
<path d="M106.512 150.216V180.204H116.628C117.78 180.204 118.91 180.321 120 180.541V126.892H106.512V150.216Z" fill-opacity="0.03"/>
<path d="M120 36.388C120 39.9948 116.98 42.9192 113.256 42.9192C109.531 42.9192 106.512 39.9948 106.512 36.388C106.512 32.7812 109.531 29.8568 113.256 29.8568C116.98 29.8568 120 32.7812 120 36.388Z" fill-opacity="0.03"/>
<path d="M109.767 49.4504V106.831H116.744V49.4504C115.62 49.7315 114.465 49.926 113.256 49.926C112.045 49.926 110.89 49.7315 109.767 49.4504Z" fill-opacity="0.03"/>
<path d="M106.512 112.896H120V119.894H106.512V112.896Z" fill-opacity="0.03"/>
<path d="M73.5688 76.8491V60.0725C73.5688 52.6705 67.5877 46.6513 60.2325 46.6513C52.8774 46.6513 46.8963 52.6705 46.8963 60.0725V76.8491H30.2325C30.3953 96.2567 33.4771 115.419 39.3442 133.889H81.1209C86.988 115.419 90.0681 96.2567 90.2325 76.8491H73.5688Z" fill-opacity="0.03"/>
<path d="M0 112.896H13.4884V119.894H0L0 112.896Z" fill-opacity="0.03"/>
<path d="M0 180.541C1.08836 180.321 2.21788 180.204 3.37209 180.204H13.4884V126.892H0V180.541Z" fill-opacity="0.03"/>
<path d="M6.74423 49.926C5.53318 49.926 4.37834 49.7315 3.25586 49.4504V106.831H10.2326V49.4504C9.10842 49.7315 7.95358 49.926 6.74423 49.926Z" fill-opacity="0.03"/>
<path d="M13.4884 36.388C13.4884 39.9948 10.4686 42.9192 6.74419 42.9192C3.01974 42.9192 0 39.9948 0 36.388C0 32.7812 3.01974 29.8568 6.74419 29.8568C10.4686 29.8568 13.4884 32.7812 13.4884 36.388Z" fill-opacity="0.03"/>
<path d="M20.9302 146.952H99.5348C98.1623 142.879 94.4667 139.954 90.1351 139.954H30.3299C25.9967 139.954 22.3027 142.879 20.9302 146.952Z" fill-opacity="0.03"/>
</svg>
