<svg width="190" height="275" viewBox="5 5 195 280" fill="none" xmlns="http://www.w3.org/2000/svg"
    xmlns:xlink="http://www.w3.org/1999/xlink">
    <style>
        /* @import url("https://fonts.googleapis.com/css?family=Open+Sans:400,600"); */

        .code {
            font-family: Open Sans;
            font-weight: 600;
            font-size: 32px;
            line-height: 125%;
        }

        .type {
            font-family: Open Sans;
            font-weight: normal;
            font-size: 12px;
            line-height: 150%;
            letter-spacing: 0.05em;
            text-transform: uppercase;
        }

        .caption {
            font-family: Open Sans;
            font-weight: normal;
            font-size: 12px;
            line-height: 125%;
        }
    </style>
    <g fill="black">
        <rect width="200" height="285" fill="white" />
        <g width="29" height="29" shape-rendering="crispEdges" transform="scale(6.9)">
            $QR
        </g>

        <text x="100" y="224" text-anchor="middle" class="code">
            $CODE
        </text>
        <text x="100" y="247" text-anchor="middle" class="type">
            $TYPE
        </text>
        <text x="186" y="271" text-anchor="end" class="caption" fill-opacity="0.6">
            app.tronis.lv
        </text>

        <g fill-opacity="0.6">
            <path d="M16.6667 267.341H27.3334V268.271H16.6667V267.341Z" />
            <path d="M16.6667 269.202H27.3334V270.938H16.6667V269.202Z" />
            <path
                d="M18.1121 250.885C18.1831 250.896 18.2546 250.902 18.3258 250.902C18.4448 250.902 18.5614 250.883 18.6749 250.852L18.9416 251.279L19.7055 250.813L19.4123 250.343C19.5335 250.177 19.6191 249.987 19.6525 249.779C19.709 249.428 19.6237 249.076 19.4123 248.789C19.201 248.501 18.889 248.312 18.5335 248.257C18.1814 248.202 17.8231 248.285 17.5318 248.495C17.241 248.703 17.0499 249.012 16.9938 249.363C16.9373 249.714 17.0226 250.066 17.2338 250.353C17.4444 250.641 17.7567 250.83 18.1121 250.885ZM18.0593 249.212C18.1369 249.157 18.228 249.128 18.3223 249.128C18.3455 249.128 18.3694 249.13 18.3931 249.133C18.5116 249.152 18.6153 249.215 18.6854 249.31L18.6858 249.311C18.7557 249.407 18.7844 249.524 18.766 249.641C18.7472 249.758 18.683 249.861 18.5866 249.93C18.4897 249.999 18.3716 250.027 18.2526 250.01C18.1343 249.991 18.0306 249.928 17.96 249.832C17.8141 249.634 17.8586 249.356 18.0593 249.212Z" />
            <path
                d="M25.0582 251.279L25.3246 250.852C25.4382 250.883 25.555 250.902 25.6737 250.902C25.7447 250.902 25.8162 250.896 25.8874 250.885C26.2428 250.83 26.5545 250.641 26.7657 250.353C26.9776 250.066 27.0629 249.714 27.0063 249.363C26.9502 249.012 26.7591 248.704 26.4681 248.495C26.1769 248.285 25.8197 248.202 25.4664 248.257C25.111 248.312 24.7991 248.501 24.5881 248.789C24.3764 249.076 24.2912 249.428 24.3477 249.779C24.3808 249.987 24.4665 250.177 24.5877 250.344L24.2947 250.813L25.0582 251.279ZM25.3139 249.309C25.3838 249.213 25.4881 249.151 25.606 249.132C25.6299 249.129 25.6536 249.127 25.677 249.127C25.7712 249.127 25.8624 249.156 25.94 249.211C26.1401 249.355 26.185 249.633 26.0397 249.831L26.0393 249.832C25.9691 249.928 25.865 249.99 25.7469 250.009C25.6273 250.026 25.5096 249.999 25.4132 249.929C25.3161 249.86 25.2523 249.756 25.2335 249.64C25.2146 249.523 25.2433 249.405 25.3139 249.309Z" />
            <path
                d="M25.5493 254.555C25.5493 253.117 24.6912 251.829 23.3633 251.275C22.8044 251.042 22.4438 250.482 22.4438 249.848C22.4438 249.68 22.4708 249.514 22.5246 249.353L23.3311 247.889L22.0001 247L20.6692 247.889L21.4757 249.353C21.5294 249.514 21.5565 249.68 21.5565 249.848C21.5565 250.482 21.1958 251.042 20.6367 251.275C19.309 251.829 18.4509 253.117 18.4509 254.555V255.444H16.2327V261.345C16.4965 261.499 16.6763 261.783 16.6763 262.11V265.233C17.048 264.95 17.506 264.777 18.0073 264.777H18.2921C17.5175 262.257 17.12 259.647 17.12 257.005V256.333H19.3382V254.999C19.3382 253.529 20.532 252.333 22.0001 252.333C23.4682 252.333 24.662 253.529 24.662 254.999V256.333H26.8803V257.005C26.8803 259.647 26.4827 262.257 25.7081 264.777H25.993C26.4942 264.777 26.9522 264.95 27.3239 265.233V262.11C27.3239 261.783 27.5035 261.499 27.7675 261.345V255.444H25.5493V254.555Z" />
            <path
                d="M28.2017 266.969V270.955H29.5505C29.7042 270.955 29.8548 270.971 30.0001 271V263.868H28.2017V266.969Z" />
            <path
                d="M30.0001 251.837C30.0001 252.317 29.5975 252.705 29.1009 252.705C28.6043 252.705 28.2017 252.317 28.2017 251.837C28.2017 251.358 28.6043 250.969 29.1009 250.969C29.5975 250.969 30.0001 251.358 30.0001 251.837Z" />
            <path
                d="M28.6357 253.574V261.202H29.566V253.574C29.4161 253.611 29.2621 253.637 29.1009 253.637C28.9394 253.637 28.7854 253.611 28.6357 253.574Z" />
            <path d="M28.2017 262.008H30.0001V262.938H28.2017V262.008Z" />
            <path
                d="M23.8092 257.216V254.986C23.8092 254.002 23.0117 253.202 22.031 253.202C21.0503 253.202 20.2528 254.002 20.2528 254.986V257.216H18.031C18.0527 259.796 18.4636 262.343 19.2459 264.798H24.8161C25.5984 262.343 26.0091 259.796 26.031 257.216H23.8092Z" />
            <path d="M14 262.008H15.7984V262.938H14V262.008Z" />
            <path d="M14 271C14.1451 270.971 14.2957 270.955 14.4496 270.955H15.7984V263.868H14V271Z" />
            <path
                d="M14.8992 253.637C14.7377 253.637 14.5837 253.611 14.4341 253.574V261.202H15.3643V253.574C15.2144 253.611 15.0604 253.637 14.8992 253.637Z" />
            <path
                d="M15.7984 251.837C15.7984 252.317 15.3958 252.705 14.8992 252.705C14.4026 252.705 14 252.317 14 251.837C14 251.358 14.4026 250.969 14.8992 250.969C15.3958 250.969 15.7984 251.358 15.7984 251.837Z" />
            <path
                d="M16.7908 266.535H27.2714C27.0884 265.993 26.5956 265.605 26.0181 265.605H18.0441C17.4663 265.605 16.9738 265.993 16.7908 266.535Z" />
        </g>
    </g>
</svg>
